{
    "model": "ReportTemplates",
    "title": "Reports.Lists.ReportCategory.Description",
    "subtitle": "Edit item",
    "settings": {
      "i18n": {
        "el": {
          "Set the name of this category. This name will be visible while selecting reports":"Ορίστε την ονομασία της κατηγορίας. Αυτό το όνομα θα είναι ορατό στις λίστες επιλογής",
          "Set an alternate name for this item. This name will be used to identify items":"Ορίστε μία εναλλακτική ονομασία για αυτό το στοιχείο. Αυτό το όνομα θα χρησιμοποιηθεί για την ταυτοποίηση του στοιχείου",
          "This field must contain only latin characters or numbers e.g. active, closed etc. A value is required.": "Αυτό το πεδίο πρέπει να περιέχει μόνον λατινικούς χαρακτήρες ή αριθμούς πχ. active, closed κτλ. Το πεδίο είναι υποχρεωτικό.",
          "Write a short description for this item": "Γράψτε μία σύντομη περιγραφή για αυτό το στοιχείο",
          "Set the name of the main entity of this report category. This entity will be used by the reporting services while getting data": "Ορίστε το όνομα της κύριας οντότητας με την οποία σχετίζεται αυτή η κατηγορία. Αυτή η οντότητα θα χρησιμοποιηθεί από τις υπηρεσίες αναφοράς κατά τη λήψη δεδομένων",
          "Applies to": "Σχετίζεται με"
        }
      }
    },
    "components": [
      {
        "type": "fieldset",
        "components": [
          {
            "label": "HTML",
            "tag": "h5",
            "className": "font-weight-normal",
            "content": "{{instance.t(form.subtitle)}}",
            "refreshOnChange": false,
            "tableView": false,
            "key": "subtitle",
            "type": "htmlelement",
            "input": false
          },
          {
            "columns": [
              {
                "components": [
                  {
                    "label": "Name",
                    "labelPosition": "top",
                    "widget": {
                      "type": "input"
                    },
                    "validate": {
                      "required": true
                    },
                    "key": "name",
                    "type": "textfield",
                    "input": true,
                    "disabled": false,
                    "description": "Set the name of this category. This name will be visible while selecting reports"
                  }
                ],
                "width": 6
              },
              {
                "components": [
                  {
                    "label": "AlternateName",
                    "labelPosition": "top",
                    "widget": {
                      "type": "input"
                    },
                    "validate": {
                      "required": true,
                      "pattern": "^[a-zA-Z0-9_+-]+$",
                      "customMessage": "This field must contain only latin characters or numbers e.g. active, closed etc. A value is required."
                    },
                    "key": "alternateName",
                    "type": "textfield",
                    "input": true,
                    "description": "Set an alternate name for this item. This name will be used to identify items"
                  }
                ],
                "width": 6
              },
              {
                "components": [
                  {
                    "label": "Applies to",
                    "labelPosition": "top",
                    "widget": {
                      "type": "input"
                    },
                    "validate": {
                      "required": true
                    },
                    "key": "appliesTo",
                    "type": "textfield",
                    "input": true,
                    "disabled": false,
                    "description": "Set the name of the main entity of this report category. This entity will be used by the reporting services while getting data"
                  }
                ],
                "width": 6
              },
              {
                "components": [
                  {
                    "label": "Description",
                    "labelPosition": "top",
                    "widget": {
                      "type": "input"
                    },
                    "validate": {
                      "required": false
                    },
                    "key": "description",
                    "type": "textarea",
                    "input": true,
                    "description": "Write a short description for this item"
                  }
                ],
                "width": 12
              }
            ],
            "customClass": "text-dark",
            "hideLabel": true,
            "type": "columns",
            "input": false
          }
        ]
      },
      {
        "type": "button",
        "label": "Submit",
        "key": "submit",
        "disableOnInvalid": true,
        "input": true
      }
    ]
  }
  