{
    "model": "CourseExams",
    "title": "CourseExams",
    "searchExpression": "indexof(course/name, '${text}') ge 0 or indexof(course/displayCode, '${text}') ge 0 or indexof(examPeriod/name, '${text}') ge 0 )",
    "columns": [
      {
        "name": "name",
        "property": "title",
        "title": "Exams.ExamName"
      },
      {
        "name": "examPeriod/name",
        "property": "examPeriod",
        "title": "Exams.Period"
      },
      {
        "name": "year/alternateName",
        "property": "year",
        "title": "Exams.Year"
      },
      {
        "name": "numberOfGradedStudents",
        "property": "numberOfGradedStudents",
        "title": "Exams.NumberOfGradedStudents"
      },
      {
        "name": "status/name",
        "property": "status",
        "title": "Exams.Status",
        "formatter": "TranslationFormatter",
        "formatString": "ExamStatus.${value.toLowerCase()}"
      },
      {
        "name": "dateCompleted",
        "property": "dateCompleted",
        "title": "Exams.DateCompleted",
        "formatter": "DateTimeFormatter",
        "formatString": "shortDate"
      },
      {
        "name":"id",
        "property": "id",
        "formatter": "ActionLinkFormatter",
        "actions" : [
          {
            "title": "Labels.PreviewLink",
            "href": "#/exams/${id}/dashboard/general"
          }
        ]
      }
    ],
    "defaults":{
      "orderBy": "year desc, examPeriod desc"
    },
    "criteria": [
      {
        "name": "courseTitle",
        "filter": "(indexof(course/name, '${value}') ge 0)",
        "type": "text"
      },
      {
        "name": "displayCode",
        "filter": "(course/displayCode eq '${value}')",
        "type": "text"
      },
      {
        "name": "status",
        "filter": "(status/name eq '${value}')",
        "type": "text"
      },
      {
        "name": "academicYear",
        "filter": "(year/alternateName eq '${value}')",
        "type": "text"
      },
      {
        "name": "examPeriod",
        "filter": "(examPeriod/name eq '${value}')",
        "type": "text"
      },
      {
        "name": "courseID",
        "filter": "(course eq '${value}')",
        "type": "text"
      },
      {
        "name": "numberOfStudentsGreaterThan",
        "filter": "(numberOfGradedStudents ge '${value}')",
        "type": "text"
      },
      {
        "name": "numberOfStudentsLowerThan",
        "filter": "(numberOfGradedStudents le '${value}')",
        "type": "text"
      }
    ]
  }
  