{
  "components": [
    {
      "label": "Columns",
      "columns": [
        {
          "components": [
            {
              "label": "Students.studentIdentifier",
              "spellcheck": true,
              "tableView": true,
              "validate": {
                "unique": false,
                "multiple": false
              },
              "key": "studentIdentifier",
              "type": "textfield",
              "input": true,
              "hideOnChildrenHidden": false
            }
          ],
          "width": 3,
          "offset": 0,
          "push": 0,
          "pull": 0
        },
        {
          "components": [
            {
              "label": "Students.fullName",
              "spellcheck": true,
              "tableView": true,
              "validate": {
                "unique": false,
                "multiple": false
              },
              "key": "studentName",
              "type": "textfield",
              "input": true,
              "hideOnChildrenHidden": false
            }
          ],
          "width": 5,
          "offset": 0,
          "push": 0,
          "pull": 0
        },
        {
          "components": [
            {
              "label": "Requests.ActionStatusTitle",
              "widget": "choicesjs",
              "dataSrc": "url",
              "data": {
                "url": "ActionStatusTypes",
                "headers": []
              },
              "selectThreshold": 0.3,
              "validate": {
                "unique": false,
                "multiple": false
              },
              "template": "{{ item.alternateName }}",
              "key": "actionStatus",
              "valueProperty": "alternateName",
              "selectValues": "value",
              "type": "select",
              "input": true,
              "hideOnChildrenHidden": false,
              "disableLimit": false,
              "lazyLoad": false
            }
          ],
          "width": 4,
          "offset": 0,
          "push": 0,
          "pull": 0
        },
        {
          "components": [
            {
              "label": "Requests.AgreeParticipate",
              "widget": "choicesjs",
              "data": {
                "values": [
                  {
                    "label": "Yes",
                    "value": "1"
                  },
                  {
                    "label": "No",
                    "value": "0"
                  }
                ]
              },
              "dataType": "string",
              "validate": {
                "unique": false,
                "multiple": false
              },
              "key": "agree",
              "valueProperty": "value",
              "selectValues": "label",
              "type": "select",
              "input": true,
              "hideOnChildrenHidden": false,
              "disableLimit": false,
              "lazyLoad": false,
              "searchEnabled": false
            }
          ],
          "width": 3,
          "offset": 0,
          "push": 0,
          "pull": 0
        },

        {
          "components": [
            {
              "label": "Requests.AcademicYear",
              "widget": "choicesjs",
              "dataSrc": "url",
              "data": {
                "url": "AcademicYears?$orderby=id desc",
                "headers": []
              },
              "selectThreshold": 0.3,
              "validate": {
                "unique": false,
                "multiple": false
              },
              "template": "<span class='d-block pr-5 text-truncate'>{{ item.alternateName }}</span>",
              "key": "yearId",
              "valueProperty": "id",
              "selectValues": "value",
              "type": "select",
              "input": true,
              "hideOnChildrenHidden": false,
              "disableLimit": false,
              "lazyLoad": false
            }
          ],
          "width": 4,
          "offset": 0,
          "push": 0,
          "pull": 0
        },
        {
          "components": [
            {
              "label": "Students.ExamPeriod",
              "widget": "choicesjs",
              "dataSrc": "url",
              "data": {
                "url": "ExamPeriods",
                "headers": []
              },
              "selectThreshold": 0.3,
              "template": "<span class='d-block pr-5 text-truncate'>{{ item.name }}</span>",
              "key": "examPeriod",
              "valueProperty": "name",
              "selectValues": "value",
              "type": "select",
              "input": true,
              "hideOnChildrenHidden": false,
              "disableLimit": false,
              "lazyLoad": false
            }
          ],
          "width": 4,
          "offset": 0,
          "push": 0,
          "pull": 0
        }

      ],
      "tableView": false,
      "key": "columns1",
      "type": "columns",
      "input": false,
      "path": "columns1"
    }
  ]
}
