{
  "model": "Scholarships",
  "components": [
    {
      "type": "fieldset",
      "legend": "General",
      "components": [
        {
          "columns": [
            {
              "components": [
                {
                  "label": "Name",
                  "labelPosition": "top",
                  "widget": {
                    "type": "input"
                  },
                  "validate": {
                    "required": true
                  },
                  "key": "name",
                  "type": "textfield",
                  "input": true
                }
              ],
              "width": 6
            },
            {
              "components": [
                {
                  "label": "Department",
                  "labelPosition": "top",
                  "disabled": true,
                  "widget": "choicesjs",
                  "dataSrc": "url",
                  "data": {
                    "url": "LocalDepartments/?$select=name,id",
                    "headers": []
                  },
                  "validate": {
                    "required": true
                  },
                  "searchFields": ["id","name"],
                  "searchField": "$search",
                  "template": "<span class='d-block pr-5 text-truncate'>{{ item.name }}</span>",
                  "selectValues": "value",
                  "key": "department.id",
                  "valueProperty": "id",
                  "lazyLoad": false,
                  "type": "select",
                  "input": true
                }
              ],
              "width": 6
            }
          ],
          "customClass": "text-dark",
          "hideLabel": true,
          "type": "columns",
          "input": false
        },
        {
          "columns": [
            {
              "components": [
                {
                  "label": "Organization",
                  "labelPosition": "top",
                  "disabled": true,
                  "widget": "choicesjs",
                  "dataSrc": "url",
                  "data": {
                    "url": "Companies",
                    "headers": []
                  },
                  "validate": {
                    "required": true
                  },
                  "searchFields": ["id","name"],
                  "searchField": "$search",
                  "template": "<span class='d-block pr-5 text-truncate'>{{ item.name }}</span>",
                  "selectValues": "value",
                  "key": "organization.id",
                  "valueProperty": "id",
                  "lazyLoad": false,
                  "type": "select",
                  "input": true
                }
              ],
              "width": 3
            },
            {
              "components": [
                {
                  "label": "Academic Year",
                  "labelPosition": "top",
                  "dataSrc": "url",
                  "data": {
                    "url": "AcademicYears/?$top=100",
                    "headers": []
                  },
                  "searchFields": ["id","name","alternateName"],
                  "template": "<span class='d-block pr-5 text-truncate'>{{ item.alternateName }}</span>",
                  "selectValues": "value",
                  "widget": "choicesjs",
                  "key": "year",
                  "type": "select",
                  "input": true,
                  "validate": {
                    "required": true
                  },
                  "searchEnabled": false
                }
              ],
              "width": 3
            },
            {
              "components": [
                {
                  "label": "Type",
                  "labelPosition": "top",
                  "widget": "choicesjs",
                  "dataSrc": "url",
                  "data": {
                    "url": "ScholarshipTypes",
                    "headers": []
                  },
                  "validate": {
                    "required": true
                  },
                  "template": "<span class='d-block pr-5 text-truncate'>{{ item.name }}</span>",
                  "selectValues": "value",
                  "valueProperty": "id",
                  "lazyLoad": false,
                  "type": "select",
                  "key": "scholarshipType.id",
                  "input": true,
                  "searchEnabled": false
                }
              ],
              "width": 3
            },
            {
              "components": [
                {
                  "label": "Status",
                  "labelPosition": "top",
                  "widget": "choicesjs",
                  "dataSrc": "url",
                  "data": {
                    "url": "ScholarshipStatuses/?$select=id as value, name as label",
                    "headers": []
                  },
                  "validate": {
                    "required": true
                  },
                  "template": "<span class='d-block pr-5 text-truncate'>{{ item.label }}</span>",
                  "selectValues": "value",
                  "lazyLoad": false,
                  "key": "status",
                  "valueProperty": "value",
                  "type": "select",
                  "input": true,
                  "searchEnabled": false
                }
              ],
              "width": 3
            }
          ],
          "customClass": "text-dark",
          "hideLabel": true,
          "type": "columns",
          "input": false
        }
      ]
    },
    {
      "type": "button",
      "label": "Submit",
      "key": "submit",
      "disableOnInvalid": true,
      "input": true
    }
  ]
}
