{
  "model": "Students",
  "components": [
    {
      "legend": "New student",
      "key": "fieldset",
      "type": "fieldset",
      "input": false,
      "components": [
        {
          "columns": [
            {
              "components": [
                {
                  "label": "Department",
                  "labelPosition": "top",
                  "widget": "choicesjs",
                  "key": "department",
                  "dataSrc": "url",
                  "data": {
                    "url": "LocalDepartments/?$select=id,name&$top=-1&$orderby=name",
                    "headers": []
                  },
                  "template": "{{ item.name }}",
                  "selectValues": "value",
                  "type": "select",
                  "input": true,
                  "lazyLoad": false,
                  "searchEnabled": true,
                  "searchFields":[ "value.id", "value.name" ],
                  "disabled": true,
                  "validate": {
                    "required": true
                  }
                }
              ],
              "width": 9,
              "offset": 0,
              "push": 0,
              "pull": 0
            },
            {
              "components": [
                {
                  "label": "Status",
                  "labelPosition": "top",
                  "widget": "choicesjs",
                  "dataSrc": "url",
                  "data": {
                    "url": "StudentStatuses?$orderby=name",
                    "headers": []
                  },
                  "template": "{{ item.name }}",
                  "selectValues": "value",
                  "key": "studentStatus",
                  "valueProperty": "id",
                  "searchEnabled": false,
                  "type": "select",
                  "input": true,
                  "lazyLoad": false,
                  "defaultValue": "1",
                  "disabled": true,
                  "validate": {
                    "required": true
                  }
                }
              ],
              "width": 3,
              "offset": 0,
              "push": 0,
              "pull": 0
            },
            {
              "components": [
                {
                  "label": "Given Name",
                  "key": "person.givenName",
                  "labelPosition": "top",
                  "dataSrc": "url",
                  "widget": {
                    "type": "input"
                  },
                  "validate": {
                    "required": true
                  },
                  "type": "textfield",
                  "input": true
                }
              ],
              "width": 3,
              "offset": 0,
              "push": 0,
              "pull": 0
            },
            {
              "components": [
                {
                  "label": "Family Name",
                  "labelPosition": "top",
                  "widget": "choicesjs",
                  "dataSrc": "url",
                  "selectValues": "value",
                  "key": "person.familyName",
                  "type": "textfield",
                  "input": true,
                  "validate": {
                    "required": true
                  }
                }
              ],
              "width": 3,
              "offset": 0,
              "push": 0,
              "pull": 0
            },
            {
              "components": [
                {
                  "label": "Father's Name",
                  "key": "person.fatherName",
                  "labelPosition": "top",
                  "widget": "choicesjs",
                  "dataSrc": "url",
                  "selectValues": "value",
                  "type": "textfield",
                  "input": true,
                  "validate": {
                    "required": false
                  }
                }
              ],
              "width": 3,
              "offset": 0,
              "push": 0,
              "pull": 0
            },
            {
              "components": [
                {
                  "label": "Mother's Name",
                  "key": "person.motherName",
                  "labelPosition": "top",
                  "widget": {
                    "type": "input"
                  },
                  "type": "textfield",
                  "input": true,
                  "validate": {
                    "required": false
                  }
                }
              ],
              "width": 3,
              "offset": 0,
              "push": 0,
              "pull": 0
            },
            {
              "components": [
                {
                  "label": "Student Number",
                  "key": "studentIdentifier",
                  "labelPosition": "top",
                  "type": "number",
                  "input": true,
                  "validate": {
                    "required": false
                  }
                }
              ],
              "width": 3,
              "offset": 0,
              "push": 0,
              "pull": 0
            },
            {
              "components": [
                {
                  "label": "Gender",
                  "labelPosition": "top",
                  "dataSrc": "url",
                  "data": {
                    "url": "Genders?$filter=identifier ne null",
                    "headers": []
                  },
                  "template": "{{ item.name }}",
                  "key": "person.gender",
                  "type": "select",
                  "input": true,
                  "selectValues": "value",
                  "valueProperty": "identifier",
                  "widget": "choicesjs",
                  "searchEnabled": false,
                  "validate": {
                    "required": true
                  }
                }
              ],
              "width": 3,
              "offset": 0,
              "push": 0,
              "pull": 0
            },
            {
              "components": [
                {
                  "label": "Semester",
                  "key": "semester",
                  "labelPosition": "top",
                  "type": "number",
                  "input": true,
                  "validate": {
                    "required": false
                  },
                  "refreshOn": "inscriptionSemester",
                  "lazyLoad": true,
                  "clearOnRefresh": true,
                  "calculateValue": "value = data.inscriptionSemester.id",
                  "hidden": true
                }
              ],
              "width": 3,
              "offset": 0,
              "push": 0,
              "pull": 0
            },
            {
              "components": [
                {
                  "label": "Study Program",
                  "labelPosition": "top",
                  "dataSrc": "url",
                  "data": {
                    "url": "StudyPrograms/?$filter=department eq '{{data.department.id}}' and isActive eq 1&$orderby id descending",
                    "headers": []
                  },
                  "template": "{{ item.name }}",
                  "key": "studyProgram",
                  "type": "select",
                  "input": true,
                  "selectValues": "value",
                  "widget": "choicesjs",
                  "searchEnabled": false,
                  "validate": {
                    "required": true
                  }
                }
              ],
              "width": 6,
              "offset": 0,
              "push": 0,
              "pull": 0
            },
            {
              "components": [
                {
                  "label": "Study Program Specialty",
                  "labelPosition": "top",
                  "dataSrc": "url",
                  "data": {
                    "url": "studyProgramSpecialties?$top-1&$filter=studyProgram eq {{data.studyProgram.id}}",
                    "headers": []
                  },
                  "template": "{{ item.name }}",
                  "key": "studyProgramSpecialty",
                  "valueProperty": "id",
                  "refreshOn": "studyProgram",
                  "lazyLoad": true,
                  "clearOnRefresh": true,
                  "type": "select",
                  "input": true,
                  "selectValues": "value",
                  "widget": "choicesjs",
                  "searchEnabled": false,
                  "validate": {
                    "required": true
                  }
                }
              ],
              "width": 6,
              "offset": 0,
              "push": 0,
              "pull": 0
            },
            {
              "components": [
                {
                  "label": "Graduation Title",
                  "labelPosition": "top",
                  "key": "graduationTitle",
                  "type": "textfield",
                  "input": true,
                  "calculateValue": "value = data.studyProgram.degreeDescription",
                  "refreshOn": "studyProgram",
                  "clearOnRefresh": true,
                  "searchEnabled": false,
                  "disabled" : true
                }
              ],
              "width": 6,
              "offset": 0,
              "push": 0,
              "pull": 0
            }
          ],
          "customClass": "text-dark",
          "type": "columns",
          "input": false
        }
      ]
    },
    {
      "legend": "Inscription Information",
      "key": "fieldset",
      "type": "fieldset",
      "input": false,
      "components": [
        {
          "columns": [
            {
              "components": [
                {
                  "label": "Inscription Year",
                  "labelPosition": "top",
                  "key": "inscriptionYear.alternateName",
                  "type": "select",
                  "searchEnabled": false,
                  "dataSrc": "url",
                  "data": {
                    "url": "AcademicYears?$top={{limit}}&$skip={{skip}}&$orderby=id desc",
                    "headers": []
                  },
                  "limit": 20,
                  "template": "{{ item.alternateName }}",
                  "input": true,
                  "lazyLoad": true,
                  "selectValues": "value",
                  "widget": "choicesjs",
                  "validate": {
                    "required": true
                  }
                }
              ],
              "width": 3,
              "offset": 0,
              "push": 0,
              "pull": 0
            },
            {
              "components": [
                {
                  "label": "Inscription Period",
                  "labelPosition": "top",
                  "widget": "choicesjs",
                  "dataSrc": "url",
                  "data": {
                    "url": "AcademicPeriods",
                    "headers": []
                  },
                  "template": "{{ item.name }}",
                  "selectValues": "value",
                  "key": "inscriptionPeriod.name",
                  "type": "select",
                  "input": true,
                  "searchEnabled": false,
                  "validate": {
                    "required": true
                  }
                }
              ],
              "width": 3,
              "offset": 0,
              "push": 0,
              "pull": 0
            },
            {
              "components": [
                {
                  "label": "Inscription semester",
                  "labelPosition": "top",
                  "widget": "choicesjs",
                  "dataSrc": "url",
                  "data": {
                    "url": "Semesters",
                    "headers": []
                  },
                  "template": "{{ item.name }}",
                  "selectValues": "value",
                  "key": "inscriptionSemester.id",
                  "valueProperty": "id",
                  "type": "select",
                  "input": true,
                  "searchEnabled": false,
                  "validate": {
                    "required": true
                  }
                }
              ],
              "width": 3,
              "offset": 0,
              "push": 0,
              "pull": 0
            },
            {
              "components": [
                {
                  "label": "Inscription date",
                  "labelPosition": "top",
                  "widget": {
                    "type": "input"
                  },
                  "validate": {
                    "required": true
                  },
                  "type": "datetime",
                  "format": "dd/MM/yyyy",
                  "input": true,
                  "key": "inscriptionDate"
                }
              ],
              "width": 3,
              "offset": 0,
              "push": 0,
              "pull": 0
            },
            {
              "components": [
                {
                  "label": "Inscription mode",
                  "widget": "choicesjs",
                  "dataSrc": "url",
                  "defaultValue": "",
                  "labelPosition": "top",
                  "searchEnabled": true,
                  "data": {
                    "values": [],
                    "url": "/InscriptionModes?$top={{limit}}&$skip={{skip}}",
                    "headers": []
                  },
                  "validate": {
                    "required": true
                  },
                  "valueProperty": "id",
                  "lazyLoad": false,
                  "limit": 20,
                  "dataType": "string",
                  "template": "{{ item.name }}",
                  "selectThreshold": 0.3,
                  "key": "inscriptionMode.id",
                  "type": "select",
                  "selectValues": "value",
                  "input": true,
                  "disabled": false
                }
              ],
              "width": 6,
              "offset": 0,
              "push": 0,
              "pull": 0
            },
            {
              "components": [
                {
                  "label": "Inscription index",
                  "labelPosition": "top",
                  "key": "inscriptionIndex",
                  "type": "number",
                  "input": true,
                  "selectValues": "value",
                  "widget": "choicesjs",
                  "validate": {
                    "required": false
                  }
                }
              ],
              "width": 3,
              "offset": 0,
              "push": 0,
              "pull": 0
            },
            {
              "components": [
                {
                  "label": "Inscription decision",
                  "labelPosition": "top",
                  "widget": {
                    "type": "input"
                  },
                  "validate": {
                    "required": false
                  },
                  "type": "textfield",
                  "input": true,
                  "key": "inscriptionDecision"
                }
              ],
              "width": 3,
              "offset": 0,
              "push": 0,
              "pull": 0
            },
            {
              "components": [
                {
                  "label": "Inscription Number",
                  "labelPosition": "top",
                  "widget": {
                    "type": "input"
                  },
                  "validate": {
                    "required": false
                  },
                  "type": "number",
                  "input": true,
                  "key": "inscriptionNumber"
                }
              ],
              "width": 3,
              "offset": 0,
              "push": 0,
              "pull": 0
            },
            {
              "components": [
                {
                  "label": "Inscription points",
                  "labelPosition": "top",
                  "widget": {
                    "type": "input"
                  },
                  "validate": {
                    "required": false
                  },
                  "type": "number",
                  "input": true,
                  "key": "inscriptionPoints"
                }
              ],
              "width": 3,
              "offset": 0,
              "push": 0,
              "pull": 0
            },
            {
              "components": [
                {
                  "label": "Inscription department",
                  "labelPosition": "top",
                  "key": "inscriptionDepartment",
                  "type": "textfield",
                  "input": true,
                  "selectValues": "value",
                  "widget": "choicesjs",
                  "validate": {
                    "required": false
                  }
                }
              ],
              "width": 3,
              "offset": 0,
              "push": 0,
              "pull": 0
            },
            {
              "components": [
                {
                  "label": "Inscription Comments",
                  "labelPosition": "top",
                  "widget": "choicesjs",
                  "selectValues": "value",
                  "key": "inscriptionComments",
                  "type": "textarea",
                  "rows": 3,
                  "input": true,
                  "searchEnabled": false,
                  "validate": {
                    "required": false
                  }
                }
              ],
              "width": 12,
              "offset": 0,
              "push": 0,
              "pull": 0
            }
          ],
          "customClass": "text-dark",
          "hideLabel": true,
          "type": "columns",
          "input": false
        }
      ]
    },
    {
      "type": "button",
      "label": "Submit",
      "key": "submit",
      "disableOnInvalid": true,
      "input": true
    }
  ]
}
