{
  "model": "StudyPrograms",
  "components": [
    {
      "label": "Columns",
      "columns": [
        {
          "components": [
            {
              "label": "Courses.name",
              "spellcheck": true,
              "tableView": true,
              "validate": {
                "unique": false,
                "multiple": false
              },
              "key": "name",
              "type": "textfield",
              "input": true,
              "hideOnChildrenHidden": false
            }
          ],
          "width": 6,
          "offset": 0,
          "push": 0,
          "pull": 0
        }
      ],
      "tableView": false,
      "key": "department",
      "type": "columns",
      "input": false,
      "path": "columns"
    },
    {
      "label": "Columns",
      "columns": [
        {
          "components": [
            {
              "label": "Courses.semester",
              "widget": "choicesjs",
              "dataSrc": "url",
              "data": {
                "url": "Semesters?$orderby=id",
                "headers": []
              },
              "template": "<span class='d-block pr-5 text-truncate'>{{ item.name }}</span>",
              "valueProperty": "name",
              "selectValues": "value",
              "key": "semester",
              "type": "select",
              "input": true,
              "searchEnabled": false
            }
          ],
          "width": 3,
          "offset": 0,
          "push": 0,
          "pull": 0
        },
        {
          "components": [
            {
              "label": "Courses.DisplayCode",
              "spellcheck": true,
              "tableView": true,
              "validate": {
                "unique": false,
                "multiple": false
              },
              "key": "displayCode",
              "type": "textfield",
              "input": true,
              "hideOnChildrenHidden": false
            }
          ],
          "width": 3,
          "offset": 0,
          "push": 0,
          "pull": 0
        },
        {
          "components": [
            {
              "label": "Courses.courseStructureType",
              "spellcheck": true,
              "tableView": true,
              "dataSrc": "url",
              "data": {
                "values": [],
                "url": "/CourseStructureTypes?$top=-1&$skip=0&$select=id,name",
                "headers": []
              },
              "validate": {
                "unique": false,
                "multiple": false
              },
              "template": "<span class='d-block pr-5 text-truncate' title='{{ instance.t(item.name) }} '>{{ instance.t(item.name) }}</span>",
              "valueProperty": "id",
              "selectValues": "value",
              "key": "courseStructureType",
              "type": "select",
              "input": true,
              "hideOnChildrenHidden": false,
              "searchEnabled": false
            }
          ],
          "width": 3,
          "offset": 0,
          "push": 0,
          "pull": 0
        },
        {
          "components": [
            {
              "label": "Courses.IsEnabledLabel",
              "widget": "choicesjs",
              "data": {
                "values": [
                  {
                    "label": "Yes",
                    "value": "1"
                  }
                ,{
                    "label": "No",
                    "value": "0"
                  }
                ]
              },
              "selectThreshold": 0.3,
              "validate": {
                "unique": false,
                "multiple": false
              },
              "key": "isEnabled",
              "valueProperty": "value",
              "selectValues": "label",
              "type": "select",
              "input": true,
              "hideOnChildrenHidden": false,
              "disableLimit": false,
              "lazyLoad": false,
              "searchEnabled": false
            }
          ],
          "width": 3,
          "offset": 0,
          "push": 0,
          "pull": 0
        }
      ],
      "tableView": false,
      "key": "department",
      "type": "columns",
      "input": false,
      "path": "columns"
    },
    {
      "label": "Columns",
      "columns": [
        {
          "components": [
            {
              "label": "Courses.courseSector",
              "spellcheck": true,
              "tableView": true,
              "dataSrc": "url",
              "data": {
                "values": [],
                "url": "/CourseSectors?$top=-1&$skip=0&$select=id,name&$filter=department eq {{form.activeDepartment}}",
                "headers": []
              },
              "dataType": "string",
              "validate": {
                "unique": false,
                "multiple": false
              },
              "template": "<span class='d-block pr-5 text-truncate' title='{{ item.name }} '> {{ item.name }}</span>",
              "valueProperty": "id",
              "key": "courseSector",
              "selectValues": "value",
              "type": "select",
              "input": true,
              "hideOnChildrenHidden": false,
              "searchEnabled": false
            }
          ],
          "width": 6,
          "offset": 0,
          "push": 0,
          "pull": 0
        },
        {
          "components": [
            {
              "label": "Courses.CourseType.Label",
              "spellcheck": true,
              "tableView": true,
              "dataSrc": "url",
              "data": {
                "values": [],
                "url": "CourseTypes",
                "headers": []
              },
              "dataType": "string",
              "validate": {
                "unique": false,
                "multiple": false
              },
              "template": "<span class='d-block pr-5 text-truncate' title='{{ item.name }} '>{{ item.name }}</span>",
              "valueProperty": "name",
              "key": "courseType/name",
              "selectValues": "value",
              "type": "select",
              "input": true,
              "searchEnabled": false,
              "searchFields":[ "value.id", "value.name" ]
            }
          ],
          "width": 6,
          "offset": 0,
          "push": 0,
          "pull": 0
        }
      ],
      "tableView": false,
      "key": "columns1",
      "type": "columns",
      "input": false,
      "path": "columns1"
    }
  ]
}
